/Users/sushila/Desktop/group3/group3/src/main/java/com/mycompany/group3/library/returnBook/rETURN_bOOK_cONTROL.java
/Users/sushila/Desktop/group3/group3/src/main/java/com/mycompany/group3/library/Main.java
/Users/sushila/Desktop/group3/group3/src/main/java/com/mycompany/group3/group3/src/main/java/com/mycompany/group3/library/borrowbook/bORROW_bOOK_cONTROL.java
/Users/sushila/Desktop/group3/group3/src/main/java/com/mycompany/group3/group3/src/main/java/com/mycompany/group3/library/entities/Library.java
/Users/sushila/Desktop/group3/group3/src/main/java/com/mycompany/group3/group3/src/main/java/com/mycompany/group3/library/entities/Loan.java
/Users/sushila/Desktop/group3/group3/src/main/java/com/mycompany/group3/library/entities/Book.java
/Users/sushila/Desktop/group3/group3/src/main/java/com/mycompany/group3/group3/src/main/java/com/mycompany/group3/library/Main.java
/Users/sushila/Desktop/group3/group3/src/main/java/com/mycompany/group3/group3/src/main/java/com/mycompany/group3/library/fixbook/FixBookUI.java
/Users/sushila/Desktop/group3/group3/src/main/java/com/mycompany/group3/library/payfine/pAY_fINE_cONTROL.java
/Users/sushila/Desktop/group3/group3/src/main/java/com/mycompany/group3/library/entities/Loan.java
/Users/sushila/Desktop/group3/group3/src/main/java/com/mycompany/group3/group3/src/main/java/com/mycompany/group3/library/payfine/PayFineUI.java
/Users/sushila/Desktop/group3/group3/src/main/java/com/mycompany/group3/group3/src/main/java/com/mycompany/group3/library/entities/Member.java
/Users/sushila/Desktop/group3/group3/src/main/java/com/mycompany/group3/library/borrowbook/bORROW_bOOK_cONTROL.java
/Users/sushila/Desktop/group3/group3/src/main/java/com/mycompany/group3/group3/src/main/java/com/mycompany/group3/library/entities/Book.java
/Users/sushila/Desktop/group3/group3/src/main/java/com/mycompany/group3/group3/src/main/java/com/mycompany/group3/library/returnBook/ReturnBookUI.java
/Users/sushila/Desktop/group3/group3/src/main/java/com/mycompany/group3/group3/src/main/java/com/mycompany/group3/library/borrowbook/BorrowBookUI.java
/Users/sushila/Desktop/group3/group3/src/main/java/com/mycompany/group3/library/borrowbook/BorrowBookUI.java
/Users/sushila/Desktop/group3/group3/src/main/java/com/mycompany/group3/library/returnBook/ReturnBookUI.java
/Users/sushila/Desktop/group3/group3/src/main/java/com/mycompany/group3/library/entities/Library.java
/Users/sushila/Desktop/group3/group3/src/main/java/com/mycompany/group3/group3/src/main/java/com/mycompany/group3/library/returnBook/rETURN_bOOK_cONTROL.java
/Users/sushila/Desktop/group3/group3/src/main/java/com/mycompany/group3/group3/src/main/java/com/mycompany/group3/library/payfine/pAY_fINE_cONTROL.java
/Users/sushila/Desktop/group3/group3/src/main/java/com/mycompany/group3/library/payfine/PayFineUI.java
/Users/sushila/Desktop/group3/group3/src/main/java/com/mycompany/group3/library/fixbook/fIX_bOOK_cONTROL.java
/Users/sushila/Desktop/group3/group3/src/main/java/com/mycompany/group3/library/entities/Calendar.java
/Users/sushila/Desktop/group3/group3/src/main/java/com/mycompany/group3/library/fixbook/FixBookUI.java
/Users/sushila/Desktop/group3/group3/src/main/java/com/mycompany/group3/group3/src/main/java/com/mycompany/group3/library/entities/Calendar.java
/Users/sushila/Desktop/group3/group3/src/main/java/com/mycompany/group3/group3/src/main/java/com/mycompany/group3/library/fixbook/fIX_bOOK_cONTROL.java
/Users/sushila/Desktop/group3/group3/src/main/java/com/mycompany/group3/library/entities/Member.java
